{
    "key": "group_552c0be42be91",
    "title": "Main Site Options",
    "fields": [
        {
            "key": "field_55d5d56c09f83",
            "label": "Header",
            "name": "",
            "type": "tab",
            "instructions": "",
            "required": 0,
            "conditional_logic": 0,
            "wrapper": {
                "width": "",
                "class": "",
                "id": ""
            },
            "placement": "top",
            "endpoint": 0
        },
        {
            "key": "field_55d3a45c51824",
            "label": "Left Logo",
            "name": "site_left_logo",
            "type": "image",
            "instructions": "Use an SVG if possible.",
            "required": 0,
            "conditional_logic": 0,
            "wrapper": {
                "width": 33,
                "class": "",
                "id": ""
            },
            "return_format": "array",
            "preview_size": "thumbnail",
            "library": "all",
            "min_width": "",
            "min_height": "",
            "min_size": "",
            "max_width": "",
            "max_height": "",
            "max_size": "",
            "mime_types": ""
        },
        {
            "key": "field_55d5d5f009f85",
            "label": "Right Logo",
            "name": "site_right_logo",
            "type": "image",
            "instructions": "Use an SVG if possible.",
            "required": 0,
            "conditional_logic": 0,
            "wrapper": {
                "width": 33,
                "class": "",
                "id": ""
            },
            "return_format": "id",
            "preview_size": "thumbnail",
            "library": "all",
            "min_width": "",
            "min_height": "",
            "min_size": "",
            "max_width": "",
            "max_height": "",
            "max_size": "",
            "mime_types": ""
        },
        {
            "key": "field_55d5dcc70c9ca",
            "label": "Right Logo External Link",
            "name": "site_right_logo_link",
            "type": "url",
            "instructions": "Will probably be http:\/\/weather.com and will open in a new tab. The left logo links to the home page.",
            "required": 0,
            "conditional_logic": 0,
            "wrapper": {
                "width": 33,
                "class": "",
                "id": ""
            },
            "default_value": "http:\/\/weather.com",
            "placeholder": ""
        },
        {
            "key": "field_55d5d676e7e22",
            "label": "Twitter Link",
            "name": "twitter_link",
            "type": "url",
            "instructions": "",
            "required": 0,
            "conditional_logic": 0,
            "wrapper": {
                "width": 33,
                "class": "",
                "id": ""
            },
            "default_value": "",
            "placeholder": ""
        },
        {
            "key": "field_55d5d684e7e23",
            "label": "Facebook Link",
            "name": "facebook_link",
            "type": "url",
            "instructions": "",
            "required": 0,
            "conditional_logic": 0,
            "wrapper": {
                "width": 33,
                "class": "",
                "id": ""
            },
            "default_value": "",
            "placeholder": ""
        },
        {
            "key": "field_55d5f1f88881e",
            "label": "LinkedIn Link",
            "name": "linkedin_link",
            "type": "url",
            "instructions": "",
            "required": 0,
            "conditional_logic": 0,
            "wrapper": {
                "width": 33,
                "class": "",
                "id": ""
            },
            "default_value": "",
            "placeholder": ""
        },
        {
            "key": "field_55e72c01f6703",
            "label": "Homepage",
            "name": "",
            "type": "tab",
            "instructions": "",
            "required": 0,
            "conditional_logic": 0,
            "wrapper": {
                "width": "",
                "class": "",
                "id": ""
            },
            "placement": "top",
            "endpoint": 0
        },
        {
            "key": "field_55e72c25f6704",
            "label": "Columns",
            "name": "homepage_columns",
            "type": "number",
            "instructions": "How many columns for the grid? Select between 2 and 4.",
            "required": 0,
            "conditional_logic": 0,
            "wrapper": {
                "width": 33,
                "class": "",
                "id": ""
            },
            "default_value": 3,
            "placeholder": "",
            "prepend": "",
            "append": "",
            "min": "",
            "max": "",
            "step": "",
            "readonly": 0,
            "disabled": 0
        },
        {
            "key": "field_55e72caef6706",
            "label": "Number of Thumbs",
            "name": "number_of_thumbs",
            "type": "number",
            "instructions": "How many chapter thumbnails should show before a \"Load More\" button is displayed? Should be a multiple of the Columns option. Enter -1 to show all chapters.",
            "required": 0,
            "conditional_logic": 0,
            "wrapper": {
                "width": 33,
                "class": "",
                "id": ""
            },
            "default_value": -1,
            "placeholder": "",
            "prepend": "",
            "append": "",
            "min": "",
            "max": "",
            "step": "",
            "readonly": 0,
            "disabled": 0
        },
        {
            "key": "field_55e72c54f6705",
            "label": "First Slide as Page",
            "name": "first_slide",
            "type": "post_object",
            "instructions": "If the first slide is a page (without a \"Read More\"), select the page here. Otherwise the first slide will be the most recent chapter.",
            "required": 0,
            "conditional_logic": 0,
            "wrapper": {
                "width": 33,
                "class": "",
                "id": ""
            },
            "post_type": [
                "page"
            ],
            "taxonomy": [],
            "allow_null": 1,
            "multiple": 0,
            "return_format": "id",
            "ui": 1
        },
        {
            "key": "field_558adabd23242",
            "label": "Footer Colophon",
            "name": "",
            "type": "tab",
            "instructions": "",
            "required": 0,
            "conditional_logic": 0,
            "wrapper": {
                "width": "",
                "class": "",
                "id": ""
            },
            "placement": "top",
            "endpoint": 0
        },
        {
            "key": "field_558ad11713279",
            "label": "Copyright",
            "name": "site_footer_copyright",
            "type": "text",
            "instructions": "Add your company name here. This will appear with the copyright symbol followed by the date.",
            "required": 0,
            "conditional_logic": 0,
            "wrapper": {
                "width": 50,
                "class": "",
                "id": ""
            },
            "default_value": "Lara Schenck, LLC",
            "placeholder": "",
            "prepend": "\u00a9",
            "append": 2015,
            "maxlength": "",
            "readonly": 0,
            "disabled": 0
        },
        {
            "key": "field_558ad12b1327a",
            "label": "Credits",
            "name": "site_footer_credits",
            "type": "wysiwyg",
            "instructions": "Add credits to any tools or people that helped with the site. Leave blank if you like.",
            "required": 0,
            "conditional_logic": 0,
            "wrapper": {
                "width": 50,
                "class": "single-line-wysiwg",
                "id": ""
            },
            "default_value": "Proudly powered by <a href=\"http:\/\/wordpress.org\">WordPress.<\/a>",
            "tabs": "visual",
            "toolbar": "links_only",
            "media_upload": 0
        },
        {
            "key": "field_55e8810dc93a9",
            "label": "Favicon",
            "name": "",
            "type": "tab",
            "instructions": "",
            "required": 0,
            "conditional_logic": 0,
            "wrapper": {
                "width": "",
                "class": "",
                "id": ""
            },
            "placement": "top",
            "endpoint": 0
        },
        {
            "key": "field_55e8806e5dd0c",
            "label": "Instructions",
            "name": "",
            "type": "message",
            "instructions": "",
            "required": 0,
            "conditional_logic": 0,
            "wrapper": {
                "width": "",
                "class": "",
                "id": ""
            },
            "message": "Upload two favicon images in a PNG format at the specified dimensions. This image will show next to the page title in the browser tab.",
            "esc_html": 0
        },
        {
            "key": "field_55e880345dd0a",
            "label": "Default (16x16)",
            "name": "favicon_16",
            "type": "image",
            "instructions": "",
            "required": 0,
            "conditional_logic": 0,
            "wrapper": {
                "width": 50,
                "class": "",
                "id": ""
            },
            "return_format": "url",
            "preview_size": "thumbnail",
            "library": "all",
            "min_width": "",
            "min_height": "",
            "min_size": "",
            "max_width": "",
            "max_height": "",
            "max_size": "",
            "mime_types": "png"
        },
        {
            "key": "field_55e8805d5dd0b",
            "label": "Retina (32x32)",
            "name": "favicon_32",
            "type": "image",
            "instructions": "",
            "required": 0,
            "conditional_logic": 0,
            "wrapper": {
                "width": 50,
                "class": "",
                "id": ""
            },
            "return_format": "url",
            "preview_size": "thumbnail",
            "library": "all",
            "min_width": "",
            "min_height": "",
            "min_size": "",
            "max_width": "",
            "max_height": "",
            "max_size": "",
            "mime_types": "png"
        }
    ],
    "location": [
        [
            {
                "param": "options_page",
                "operator": "==",
                "value": "acf-options-site-wide-options"
            }
        ]
    ],
    "menu_order": 0,
    "position": "normal",
    "style": "default",
    "label_placement": "top",
    "instruction_placement": "label",
    "hide_on_screen": "",
    "active": 1,
    "description": "",
    "modified": 1443817687,
    "local": "json"
}